<?xml version="1.0" encoding="UTF-8" standalone="no"?>
<svg
   viewBox="0 0 95.686234 104.46271"
   version="1.1"
   id="svg858"
   sodipodi:docname="owncast.svg"
   inkscape:version="1.1 (c68e22c387, 2021-05-23)"
   width="95.686234"
   height="104.46271"
   xmlns:inkscape="http://www.inkscape.org/namespaces/inkscape"
   xmlns:sodipodi="http://sodipodi.sourceforge.net/DTD/sodipodi-0.dtd"
   xmlns="http://www.w3.org/2000/svg"
   xmlns:svg="http://www.w3.org/2000/svg">
  <defs
     id="defs862">
    <filter
       style="color-interpolation-filters:sRGB"
       inkscape:label="Greyscale"
       id="filter1174"
       x="0"
       y="0"
       width="1"
       height="1">
      <feColorMatrix
         values="-10 -10 -10 -10 0 -10 -10 -10 -10 0 -10 -10 -10 -10 0 0 0 0 1 0 "
         id="feColorMatrix1172" />
    </filter>
  </defs>
  <sodipodi:namedview
     id="namedview860"
     pagecolor="#ffffff"
     bordercolor="#666666"
     borderopacity="1.0"
     inkscape:pageshadow="2"
     inkscape:pageopacity="0.0"
     inkscape:pagecheckerboard="0"
     showgrid="false"
     inkscape:zoom="7.7731083"
     inkscape:cx="47.792979"
     inkscape:cy="42.003789"
     inkscape:window-width="1920"
     inkscape:window-height="1001"
     inkscape:window-x="-9"
     inkscape:window-y="-9"
     inkscape:window-maximized="1"
     inkscape:current-layer="svg858" />
  <g
     transform="translate(-37.088038,-18.940393)"
     id="g856"
     style="filter:url(#filter1174)">
    <g
       id="g854">
      <g
         id="g852">
        <g
           id="g846">
          <g
             transform="matrix(1.044568,0,0,1.0445679,36.345591,18.877718)"
             id="g844">
            <g
               id="g776">
              <defs
                 id="defs772">
                <linearGradient
                   x1="31.914997"
                   y1="79.976784"
                   x2="31.914997"
                   y2="115.80432"
                   id="gradient120"
                   gradientTransform="scale(1.3627244,0.7338241)"
                   gradientUnits="userSpaceOnUse">
                  <stop
                     offset="0"
                     stop-color="#1f2022"
                     stop-opacity="1"
                     id="stop767" />
                  <stop
                     offset="1"
                     stop-color="#635e69"
                     stop-opacity="1"
                     id="stop769" />
                </linearGradient>
              </defs>
              <path
                 fill="url(#gradient120)"
                 d="m 91.5,75.35 q 1.55,-4.2 0.15,-7.65 -1.3,-3.2 -5,-5.4 -3.45,-2 -8.35,-2.9 -4.45,-0.8 -9.7,-0.7 -5.05,0.15 -9.8,1.1 -4.55,0.95 -8,2.4 -3.4,1.45 -5.3,3.15 -1.9,1.8 -2,3.7 -0.15,2.25 2.3,4.85 2.25,2.4 6.3,4.7 4.05,2.3 8.95,3.95 5.25,1.75 10.35,2.25 3.3,0.3 6.15,0.1 3.1,-0.3 5.75,-1.3 2.85,-1.1 4.85,-3.05 2.25,-2.15 3.35,-5.2 M 70.6,67.5 q 1.7,0.9 2.5,2.2 0.8,1.45 0.35,3.3 -0.35,1.3 -1.15,2.25 -0.75,0.85 -2,1.35 -1.05,0.45 -2.55,0.65 -1.45,0.15 -2.9,0.05 -2.55,-0.15 -5.6,-1 -2.65,-0.8 -5.1,-2 -2.25,-1.1 -3.7,-2.3 -1.4,-1.25 -1.35,-2.2 0.1,-0.8 1.15,-1.55 1.05,-0.7 2.9,-1.25 1.85,-0.6 4.1,-0.9 2.55,-0.3 4.85,-0.3 2.55,0.05 4.6,0.4 2.2,0.45 3.9,1.3 z"
                 id="path774"
                 style="fill:url(#gradient120)" />
            </g>
            <g
               id="g787">
              <defs
                 id="defs783">
                <linearGradient
                   x1="39.48497"
                   y1="0.047389723"
                   x2="39.48497"
                   y2="44.901764"
                   id="gradient121"
                   gradientTransform="scale(0.78982873,1.2660973)"
                   gradientUnits="userSpaceOnUse">
                  <stop
                     offset="0"
                     stop-color="#2087e2"
                     stop-opacity="1"
                     id="stop778" />
                  <stop
                     offset="1"
                     stop-color="#b63fff"
                     stop-opacity="1"
                     id="stop780" />
                </linearGradient>
              </defs>
              <path
                 fill="url(#gradient121)"
                 d="M 66.6,15.05 Q 66.4,9.65 63.9,6.05 61.25,2.1 56.1,0.65 54.95,0.3 53.65,0.15 52.5,0 51.3,0.1 50.2,0.1 49.1,0.35 48.15,0.55 47,1 q -3.7,1.45 -6.7,5.1 -2.8,3.3 -4.8,8.2 -1.75,4.15 -2.8,9.1 -1,4.65 -1.35,9.45 -0.3,4.35 -0.05,8.35 0.3,3.95 1.1,7.15 1.6,6.55 4.9,8.05 0.3,0.15 0.6,0.25 l 1.3,0.2 q 0.25,0 0.75,-0.05 2.1,-0.2 4.75,-1.75 2.55,-1.55 5.35,-4.25 3,-2.9 5.8,-6.75 2.95,-4 5.25,-8.45 2.7,-5.25 4.15,-10.3 1.5,-5.55 1.35,-10.25 m -19.05,8.1 q 0.5,0.1 0.85,0.25 4.05,1.4 4.15,6.45 Q 52.6,34 50,39.4 q -2.15,4.5 -5.15,7.9 -2.8,3.2 -4.7,3.4 L 39.9,50.75 39.45,50.7 39.2,50.6 Q 37.8,49.95 37.25,46.35 36.7,42.7 37.3,38 q 0.65,-5.25 2.45,-9.2 2.15,-4.7 5.3,-5.55 0.55,-0.15 0.8,-0.15 0.4,-0.05 0.8,-0.05 0.4,0 0.9,0.1 z"
                 id="path785"
                 style="fill:url(#gradient121)" />
            </g>
            <g
               id="g798">
              <defs
                 id="defs794">
                <linearGradient
                   x1="0.7285248"
                   y1="30.769333"
                   x2="0.7285248"
                   y2="59.377941"
                   id="gradient122"
                   gradientTransform="scale(0.97562804,1.0249808)"
                   gradientUnits="userSpaceOnUse">
                  <stop
                     offset="0"
                     stop-color="#100f0f"
                     stop-opacity="1"
                     id="stop789" />
                  <stop
                     offset="1"
                     stop-color="#49261F"
                     stop-opacity="1"
                     id="stop791" />
                </linearGradient>
              </defs>
              <path
                 fill="url(#gradient122)"
                 d="M 2.7,33.6 Q 2.1,34.4 1.7,35.35 1.25,36.5 1.05,37.7 0,42.6 2.2,47.2 4,51 8,54.35 q 3.55,2.95 8,4.8 4.5,1.85 7.85,1.7 0.65,0 1.4,-0.15 0.75,-0.15 1.25,-0.4 0.5,-0.25 0.95,-0.65 0.45,-0.4 0.7,-0.9 1.2,-2.3 -0.65,-7.1 Q 25.6,47 21.75,42.1 17.75,37 13.4,34.05 8.7,30.9 5.45,31.7 q -0.8,0.2 -1.5,0.7 -0.7,0.45 -1.25,1.2 m 7.4,9.95 q 0.25,-0.45 0.5,-0.7 0.25,-0.25 0.6,-0.45 0.4,-0.15 0.7,-0.2 1.6,-0.3 4.05,1.4 2.2,1.45 4.4,4.1 2,2.4 3.2,4.7 1.15,2.35 0.7,3.3 -0.1,0.2 -0.25,0.3 -0.15,0.2 -0.35,0.25 -0.1,0.1 -0.4,0.15 l -0.55,0.1 q -1.6,0.1 -4.15,-0.9 -2.5,-1 -4.7,-2.65 -2.35,-1.75 -3.5,-3.8 -1.3,-2.35 -0.6,-4.7 0.15,-0.5 0.35,-0.9 z"
                 id="path796"
                 style="fill:url(#gradient122)" />
            </g>
            <g
               id="g809">
              <defs
                 id="defs805">
                <linearGradient
                   x1="33.065327"
                   y1="64.222618"
                   x2="33.065327"
                   y2="86.612762"
                   id="gradient123"
                   gradientTransform="scale(0.86555931,1.1553223)"
                   gradientUnits="userSpaceOnUse">
                  <stop
                     offset="0"
                     stop-color="#222020"
                     stop-opacity="1"
                     id="stop800" />
                  <stop
                     offset="1"
                     stop-color="#49261F"
                     stop-opacity="1"
                     id="stop802" />
                </linearGradient>
              </defs>
              <path
                 fill="url(#gradient123)"
                 d="m 34.95,74.2 h -0.2 q -1.55,-0.05 -2.85,1.05 -1.2,1.05 -2.05,3 -0.75,1.75 -1.05,3.95 -0.3,2.2 -0.1,4.45 0.4,4.75 2.8,8.05 2.8,3.8 7.8,5 h 0.1 l 0.3,0.1 h 0.15 q 5.45,1.05 7.3,-2.05 0.85,-1.45 0.85,-3.7 -0.05,-2.15 -0.8,-4.7 -0.75,-2.6 -2.1,-5.2 -1.35,-2.65 -3.05,-4.8 -1.8,-2.25 -3.6,-3.6 -1.9,-1.4 -3.5,-1.55 m -1.4,6.2 q 0.8,-2.2 2.05,-2.1 h 0.05 q 1.25,0.15 2.95,2.6 1.7,2.45 2.55,5.15 0.95,2.95 0.4,4.7 -0.65,1.85 -3.2,1.5 H 38.3 L 38.25,92.2 H 38.1 Q 35.6,91.7 34.25,89.6 33.1,87.7 32.95,85 32.8,82.35 33.55,80.4 Z"
                 id="path807"
                 style="fill:url(#gradient123)" />
            </g>
            <g
               id="g820">
              <defs
                 id="defs816">
                <linearGradient
                   x1="9.6373463"
                   y1="72.482018"
                   x2="9.6373463"
                   y2="85.871559"
                   id="gradient124"
                   gradientTransform="scale(1.0581831,0.945016)"
                   gradientUnits="userSpaceOnUse">
                  <stop
                     offset="0"
                     stop-color="#1e1c1c"
                     stop-opacity="1"
                     id="stop811" />
                  <stop
                     offset="1"
                     stop-color="#49261F"
                     stop-opacity="1"
                     id="stop813" />
                </linearGradient>
              </defs>
              <path
                 fill="url(#gradient124)"
                 d="m 22.7,69.65 q -0.45,-0.35 -1.1,-0.6 -0.65,-0.25 -1.35,-0.35 -0.65,-0.15 -1.4,-0.2 -2.15,-0.05 -4.2,0.65 -2,0.65 -3.25,1.95 -1.25,1.4 -1.2,3.1 0.05,1.85 1.75,4 0.45,0.55 1.1,1.2 0.5,0.5 1.15,0.9 0.5,0.3 1.1,0.55 0.7,0.25 1.1,0.25 1.8,0.25 3.5,-0.75 1.65,-0.95 2.85,-2.7 1.25,-1.8 1.55,-3.7 0.3,-2.1 -0.75,-3.45 -0.4,-0.5 -0.85,-0.85 m -1,2.05 q 0.45,0.6 0.2,1.6 -0.2,0.95 -0.9,1.95 -0.7,0.95 -1.6,1.5 -0.95,0.6 -1.85,0.5 L 17,77.15 q -0.3,-0.1 -0.55,-0.3 -0.2,-0.1 -0.55,-0.4 -0.2,-0.2 -0.5,-0.55 -0.9,-1.15 -0.7,-2.1 0.1,-0.85 1.05,-1.5 0.85,-0.6 2.05,-0.9 1.2,-0.3 2.3,-0.25 l 0.55,0.05 0.45,0.1 q 0.2,0.1 0.35,0.2 z"
                 id="path818"
                 style="fill:url(#gradient124)" />
            </g>
            <g
               id="g831">
              <defs
                 id="defs827">
                <linearGradient
                   x1="26.926544"
                   y1="0.07308773"
                   x2="26.926544"
                   y2="27.834246"
                   id="gradient125"
                   gradientTransform="scale(1.2181289,0.82093121)"
                   gradientUnits="userSpaceOnUse">
                  <stop
                     offset="0"
                     stop-color="#FFFFFF"
                     stop-opacity="0.5"
                     id="stop822" />
                  <stop
                     offset="1"
                     stop-color="#FFFFFF"
                     stop-opacity="0.2"
                     id="stop824" />
                </linearGradient>
              </defs>
              <path
                 fill="url(#gradient125)"
                 d="m 52.6,19.25 q 7,0 13.6,1.7 0.5,-3.15 0.4,-5.9 -0.2,-5.4 -2.7,-9 Q 61.25,2.1 56.1,0.65 54.95,0.3 53.65,0.15 52.5,0 51.3,0.1 50.2,0.1 49.1,0.35 48.15,0.55 47,1 q -3.7,1.45 -6.7,5.1 -2.8,3.3 -4.8,8.2 -1.65,4 -2.7,8.55 9.45,-3.6 19.8,-3.6 z"
                 id="path829"
                 style="fill:url(#gradient125)" />
            </g>
            <g
               id="g842">
              <defs
                 id="defs838">
                <linearGradient
                   x1="0.83099705"
                   y1="26.975092"
                   x2="0.83099705"
                   y2="42.979877"
                   id="gradient126"
                   gradientTransform="scale(0.85532098,1.1691517)"
                   gradientUnits="userSpaceOnUse">
                  <stop
                     offset="0"
                     stop-color="#FFFFFF"
                     stop-opacity="0.5"
                     id="stop833" />
                  <stop
                     offset="1"
                     stop-color="#FFFFFF"
                     stop-opacity="0.2"
                     id="stop835" />
                </linearGradient>
              </defs>
              <path
                 fill="url(#gradient126)"
                 d="M 1.05,37.7 Q 0,42.6 2.2,47.2 q 0.75,1.6 1.85,3.05 3.5,-8.6 10.35,-15.5 -0.4,-0.3 -1,-0.7 -4.7,-3.15 -7.95,-2.35 -0.8,0.2 -1.5,0.7 -0.7,0.45 -1.25,1.2 -0.6,0.8 -1,1.75 -0.45,1.15 -0.65,2.35 z"
                 id="path840"
                 style="fill:url(#gradient126)" />
            </g>
          </g>
        </g>
        <g
           transform="matrix(1.2195122,0,0,1.2195122,32.825193,88.569452)"
           id="g850">
          <path
             fill="#000000"
             fill-opacity="1"
             d=""
             id="path848" />
        </g>
      </g>
    </g>
  </g>
</svg>
